EESchema Schematic File Version 2
LIBS:power
LIBS:device
LIBS:transistors
LIBS:conn
LIBS:linear
LIBS:regul
LIBS:74xx
LIBS:cmos4000
LIBS:adc-dac
LIBS:memory
LIBS:xilinx
LIBS:special
LIBS:microcontrollers
LIBS:dsp
LIBS:microchip
LIBS:analog_switches
LIBS:motorola
LIBS:texas
LIBS:intel
LIBS:audio
LIBS:interface
LIBS:digital-audio
LIBS:philips
LIBS:display
LIBS:cypress
LIBS:siliconi
LIBS:opto
LIBS:atmel
LIBS:contrib
LIBS:valves
LIBS:gadgets
LIBS:brewery-cache
EELAYER 24 0
EELAYER END
$Descr A4 11693 8268
encoding utf-8
Sheet 1 1
Title ""
Date "7 mar 2013"
Rev ""
Comp ""
Comment1 ""
Comment2 ""
Comment3 ""
Comment4 ""
$EndDescr
$Comp
L ISOLATOR U1
U 1 1 5130337E
P 2500 3100
F 0 "U1" H 2500 3200 60  0000 C CNN
F 1 "ISOLATOR" H 2500 3100 60  0000 C CNN
F 2 "" H 2500 3100 60  0000 C CNN
F 3 "" H 2500 3100 60  0000 C CNN
	1    2500 3100
	1    0    0    -1  
$EndComp
Text Label 2950 2750 0    60   ~ 0
GND
Text Label 2400 5850 0    60   ~ 0
SPI_CLK
Text Label 2400 5650 0    60   ~ 0
SPI_CS
Text Label 2900 5750 0    60   ~ 0
SPI_IN
$Comp
L SHIFT_REGISTER U2
U 1 1 5130D3D4
P 4850 2250
F 0 "U2" H 4850 2350 60  0000 C CNN
F 1 "SHIFT_REGISTER" H 4850 2250 60  0000 C CNN
F 2 "~" H 4850 2250 60  0000 C CNN
F 3 "~" H 4850 2250 60  0000 C CNN
	1    4850 2250
	1    0    0    -1  
$EndComp
$Comp
L EXT_POWER U4
U 1 1 5130D69C
P 8450 750
F 0 "U4" H 8450 850 60  0000 C CNN
F 1 "EXT_POWER" H 8450 750 60  0000 C CNN
F 2 "" H 8450 750 60  0000 C CNN
F 3 "" H 8450 750 60  0000 C CNN
	1    8450 750 
	1    0    0    -1  
$EndComp
Text Label 5250 1000 0    60   ~ 0
ext_5V
Text Label 2350 4450 0    60   ~ 0
3V3
$Comp
L POW_SHIFT_REG U3
U 1 1 5130E8C1
P 6700 2300
F 0 "U3" H 6700 2400 60  0000 C CNN
F 1 "POW_SHIFT_REG" H 6700 2300 60  0000 C CNN
F 2 "" H 6700 2300 60  0000 C CNN
F 3 "" H 6700 2300 60  0000 C CNN
	1    6700 2300
	1    0    0    -1  
$EndComp
$Comp
L TIP120 Q1
U 1 1 5131E3F9
P 8700 1650
F 0 "Q1" H 8650 1500 40  0000 R CNN
F 1 "TIP120" H 8700 1800 40  0000 R CNN
F 2 "TO220" H 8580 1755 29  0001 C CNN
F 3 "" H 8700 1650 60  0000 C CNN
	1    8700 1650
	1    0    0    -1  
$EndComp
$Comp
L TIP120 Q2
U 1 1 5131E416
P 9350 1650
F 0 "Q2" H 9300 1500 40  0000 R CNN
F 1 "TIP120" H 9350 1800 40  0000 R CNN
F 2 "TO220" H 9230 1755 29  0001 C CNN
F 3 "" H 9350 1650 60  0000 C CNN
	1    9350 1650
	1    0    0    -1  
$EndComp
$Comp
L TIP120 Q3
U 1 1 5131E425
P 10000 1650
F 0 "Q3" H 9950 1500 40  0000 R CNN
F 1 "TIP120" H 10000 1800 40  0000 R CNN
F 2 "TO220" H 9880 1755 29  0001 C CNN
F 3 "" H 10000 1650 60  0000 C CNN
	1    10000 1650
	1    0    0    -1  
$EndComp
$Comp
L TIP120 Q4
U 1 1 5131E434
P 10650 1650
F 0 "Q4" H 10600 1500 40  0000 R CNN
F 1 "TIP120" H 10650 1800 40  0000 R CNN
F 2 "TO220" H 10530 1755 29  0001 C CNN
F 3 "" H 10650 1650 60  0000 C CNN
	1    10650 1650
	1    0    0    -1  
$EndComp
$Comp
L LED D1
U 1 1 5131ED9B
P 8500 2000
F 0 "D1" H 8500 2100 50  0000 C CNN
F 1 "LED" H 8500 1900 50  0000 C CNN
F 2 "~" H 8500 2000 60  0000 C CNN
F 3 "~" H 8500 2000 60  0000 C CNN
	1    8500 2000
	0    -1   -1   0   
$EndComp
$Comp
L LED D2
U 1 1 5131F048
P 9150 2000
F 0 "D2" H 9150 2100 50  0000 C CNN
F 1 "LED" H 9150 1900 50  0000 C CNN
F 2 "~" H 9150 2000 60  0000 C CNN
F 3 "~" H 9150 2000 60  0000 C CNN
	1    9150 2000
	0    -1   -1   0   
$EndComp
$Comp
L LED D3
U 1 1 5131F25E
P 9800 2000
F 0 "D3" H 9800 2100 50  0000 C CNN
F 1 "LED" H 9800 1900 50  0000 C CNN
F 2 "~" H 9800 2000 60  0000 C CNN
F 3 "~" H 9800 2000 60  0000 C CNN
	1    9800 2000
	0    -1   -1   0   
$EndComp
$Comp
L LED D4
U 1 1 5131F5C4
P 10450 2000
F 0 "D4" H 10450 2100 50  0000 C CNN
F 1 "LED" H 10450 1900 50  0000 C CNN
F 2 "~" H 10450 2000 60  0000 C CNN
F 3 "~" H 10450 2000 60  0000 C CNN
	1    10450 2000
	0    -1   -1   0   
$EndComp
$Comp
L DIODE D5
U 1 1 51322728
P 8800 1000
F 0 "D5" H 8800 1100 40  0000 C CNN
F 1 "DIODE" H 8800 900 40  0000 C CNN
F 2 "~" H 8800 1000 60  0000 C CNN
F 3 "~" H 8800 1000 60  0000 C CNN
	1    8800 1000
	0    -1   -1   0   
$EndComp
$Comp
L DIODE D6
U 1 1 513228EF
P 9450 1000
F 0 "D6" H 9450 1100 40  0000 C CNN
F 1 "DIODE" H 9450 900 40  0000 C CNN
F 2 "~" H 9450 1000 60  0000 C CNN
F 3 "~" H 9450 1000 60  0000 C CNN
	1    9450 1000
	0    -1   -1   0   
$EndComp
$Comp
L DIODE D7
U 1 1 513228FE
P 10100 1000
F 0 "D7" H 10100 1100 40  0000 C CNN
F 1 "DIODE" H 10100 900 40  0000 C CNN
F 2 "~" H 10100 1000 60  0000 C CNN
F 3 "~" H 10100 1000 60  0000 C CNN
	1    10100 1000
	0    -1   -1   0   
$EndComp
$Comp
L DIODE D8
U 1 1 5132290D
P 10750 1000
F 0 "D8" H 10750 1100 40  0000 C CNN
F 1 "DIODE" H 10750 900 40  0000 C CNN
F 2 "~" H 10750 1000 60  0000 C CNN
F 3 "~" H 10750 1000 60  0000 C CNN
	1    10750 1000
	0    -1   -1   0   
$EndComp
$Comp
L BEAGLEBONE BONE1
U 1 1 51322B86
P 5900 4100
F 0 "BONE1" H 5900 4200 60  0000 C CNN
F 1 "BEAGLEBONE" H 5900 4100 60  0000 C CNN
F 2 "~" H 5900 4100 60  0000 C CNN
F 3 "~" H 5900 4100 60  0000 C CNN
	1    5900 4100
	1    0    0    -1  
$EndComp
$Comp
L CONN_10 P1
U 1 1 51335754
P 10400 3400
F 0 "P1" V 10350 3400 60  0000 C CNN
F 1 "CONN_10" V 10450 3400 60  0000 C CNN
F 2 "" H 10400 3400 60  0000 C CNN
F 3 "" H 10400 3400 60  0000 C CNN
	1    10400 3400
	1    0    0    -1  
$EndComp
$Comp
L CONN_10 P2
U 1 1 51335763
P 10400 4400
F 0 "P2" V 10350 4400 60  0000 C CNN
F 1 "CONN_10" V 10450 4400 60  0000 C CNN
F 2 "" H 10400 4400 60  0000 C CNN
F 3 "" H 10400 4400 60  0000 C CNN
	1    10400 4400
	1    0    0    -1  
$EndComp
$Comp
L CONN_3 K1
U 1 1 51336BC0
P 10400 5650
F 0 "K1" V 10350 5650 50  0000 C CNN
F 1 "CONN_3" V 10450 5650 40  0000 C CNN
F 2 "" H 10400 5650 60  0000 C CNN
F 3 "" H 10400 5650 60  0000 C CNN
	1    10400 5650
	1    0    0    -1  
$EndComp
Text Label 8950 5550 0    60   ~ 0
1w
Text Label 8150 600  0    60   ~ 0
ext_12V
Wire Wire Line
	1650 3450 1650 5650
Wire Wire Line
	1650 3450 1950 3450
Wire Wire Line
	1750 3550 1750 5850
Wire Wire Line
	1750 3550 1950 3550
Wire Wire Line
	1850 3650 1850 5750
Wire Wire Line
	1850 3650 1950 3650
Wire Wire Line
	1850 5750 3500 5750
Wire Wire Line
	1750 5850 3500 5850
Wire Wire Line
	1650 5650 5300 5650
Wire Wire Line
	1550 3250 1950 3250
Wire Wire Line
	3500 1100 3500 4350
Wire Wire Line
	3500 2750 1750 2750
Wire Wire Line
	1750 2750 1750 3350
Wire Wire Line
	1750 3350 1950 3350
Wire Wire Line
	3050 3650 5700 3650
Wire Wire Line
	5700 3650 5700 2600
Wire Wire Line
	5700 2600 5400 2600
Wire Wire Line
	5650 2800 5650 3550
Wire Wire Line
	5550 2900 5550 3450
Wire Wire Line
	1550 4450 3500 4450
Wire Wire Line
	1550 3250 1550 4450
Wire Wire Line
	3050 1000 3050 3250
Wire Wire Line
	4300 3100 3500 3100
Connection ~ 3500 3100
Wire Wire Line
	3500 1100 7950 1100
Connection ~ 3500 2750
Connection ~ 7150 1100
Connection ~ 5550 3450
Connection ~ 5650 3550
Wire Wire Line
	6050 3100 6050 3250
Wire Wire Line
	6050 3250 3500 3250
Connection ~ 3500 3250
Wire Wire Line
	7650 1100 7650 4100
Connection ~ 7650 1100
Wire Wire Line
	3300 3700 3300 6950
Wire Wire Line
	3300 3700 9400 3700
Connection ~ 3300 4450
Wire Wire Line
	5650 2800 5400 2800
Wire Wire Line
	3050 3450 7500 3450
Wire Wire Line
	6050 3000 5900 3000
Wire Wire Line
	5900 3000 5900 1000
Connection ~ 5900 1000
Wire Wire Line
	6050 2400 6050 1000
Connection ~ 6050 1000
Wire Wire Line
	5550 2900 5400 2900
Wire Wire Line
	7500 3450 7500 3000
Wire Wire Line
	7500 3000 7350 3000
Wire Wire Line
	3050 3550 7450 3550
Wire Wire Line
	7450 3550 7450 2500
Wire Wire Line
	7450 2500 7350 2500
Wire Wire Line
	7700 900  7700 2500
Wire Wire Line
	9850 4850 10050 4850
Connection ~ 7700 1000
Wire Wire Line
	3950 2400 4300 2400
Wire Wire Line
	7350 2400 7350 1100
Connection ~ 7350 1100
Wire Wire Line
	9400 3700 9400 5750
Wire Wire Line
	8550 4550 10050 4550
Wire Wire Line
	8450 4550 8250 4550
Wire Wire Line
	7150 1100 7150 1850
Wire Wire Line
	8500 1800 8500 1650
Wire Wire Line
	9150 1650 9150 1800
Wire Wire Line
	9800 1650 9800 1800
Wire Wire Line
	10450 1650 10450 1800
Wire Wire Line
	5400 3100 5800 3100
Wire Wire Line
	5800 3100 5800 2500
Wire Wire Line
	5800 2500 6050 2500
Wire Wire Line
	7700 2500 9850 2500
Wire Wire Line
	9850 2500 9850 4850
Wire Wire Line
	7800 600  7800 1000
Wire Wire Line
	7800 600  11100 600 
Wire Wire Line
	11100 600  11100 4750
Wire Wire Line
	11100 4750 10050 4750
Wire Wire Line
	8800 1200 8800 1450
Wire Wire Line
	8800 800  8800 600 
Connection ~ 8800 600 
Wire Wire Line
	9450 800  9450 600 
Connection ~ 9450 600 
Wire Wire Line
	10100 800  10100 600 
Connection ~ 10100 600 
Wire Wire Line
	10750 800  10750 600 
Connection ~ 10750 600 
Wire Wire Line
	7150 1850 10750 1850
Connection ~ 8800 1850
Connection ~ 9450 1850
Connection ~ 10100 1850
Wire Wire Line
	9450 1200 9450 1450
Wire Wire Line
	10100 1200 10100 1450
Wire Wire Line
	10750 1200 10750 1450
Wire Wire Line
	11050 1200 10750 1200
Wire Wire Line
	10100 1250 11000 1250
Connection ~ 10100 1250
Wire Wire Line
	10950 1300 9450 1300
Connection ~ 9450 1300
Wire Wire Line
	10900 1350 8800 1350
Connection ~ 8800 1350
Wire Wire Line
	4200 2250 9150 2250
Wire Wire Line
	9150 2250 9150 2200
Wire Wire Line
	3900 2300 9800 2300
Wire Wire Line
	9800 2300 9800 2200
Wire Wire Line
	10450 2350 10450 2200
Wire Wire Line
	10900 1350 10900 4050
Wire Wire Line
	10950 1300 10950 3950
Wire Wire Line
	11050 1200 11050 4250
Wire Wire Line
	7650 4100 8550 4100
Wire Wire Line
	8550 4100 8550 4550
Wire Wire Line
	7350 2600 9700 2600
Wire Wire Line
	9700 2600 9700 2950
Wire Wire Line
	9700 2950 10050 2950
Wire Wire Line
	7350 2700 9650 2700
Wire Wire Line
	9650 2700 9650 3050
Wire Wire Line
	9650 3050 10050 3050
Wire Wire Line
	7350 2800 9600 2800
Wire Wire Line
	9600 2800 9600 3150
Wire Wire Line
	9600 3150 10050 3150
Wire Wire Line
	7350 2900 9550 2900
Wire Wire Line
	9550 2900 9550 3250
Wire Wire Line
	9550 3250 10050 3250
Wire Wire Line
	6050 2600 6950 2600
Wire Wire Line
	6950 2600 6950 3200
Wire Wire Line
	6950 3200 9500 3200
Wire Wire Line
	9500 3200 9500 3650
Wire Wire Line
	6050 2700 6900 2700
Wire Wire Line
	6900 2700 6900 3250
Wire Wire Line
	6900 3250 9450 3250
Wire Wire Line
	6050 2800 6850 2800
Wire Wire Line
	6850 2800 6850 3300
Wire Wire Line
	6850 3300 9400 3300
Wire Wire Line
	6050 2900 6800 2900
Wire Wire Line
	6800 2900 6800 3350
Wire Wire Line
	6800 3350 10050 3350
Wire Wire Line
	10900 4050 10050 4050
Wire Wire Line
	10950 3950 10050 3950
Wire Wire Line
	10450 2350 3950 2350
Wire Wire Line
	3950 2350 3950 2400
Wire Wire Line
	4300 2500 3900 2500
Wire Wire Line
	3900 2500 3900 2300
Wire Wire Line
	4300 2600 3850 2600
Wire Wire Line
	4200 2250 4200 2700
Wire Wire Line
	4200 2700 4300 2700
Wire Wire Line
	11050 4250 10050 4250
Wire Wire Line
	10050 4150 11000 4150
Wire Wire Line
	11000 4150 11000 1250
Wire Wire Line
	9500 3650 10050 3650
Wire Wire Line
	9450 3250 9450 3550
Wire Wire Line
	9450 3550 10050 3550
Wire Wire Line
	9400 3300 9400 3450
Wire Wire Line
	9400 3450 10050 3450
Wire Wire Line
	8400 5650 10050 5650
Wire Wire Line
	8450 4550 8450 5550
Wire Wire Line
	8450 5550 10050 5550
Wire Wire Line
	9400 5750 10050 5750
Wire Wire Line
	5300 4350 5300 4000
Wire Wire Line
	3500 4000 8400 4000
Connection ~ 3500 4000
Wire Wire Line
	6350 4000 6350 4350
Connection ~ 5300 4000
Connection ~ 8400 4350
Connection ~ 6350 4000
Wire Wire Line
	5300 6450 5550 6450
Wire Wire Line
	5550 4000 5550 6700
Wire Wire Line
	5550 4000 5600 4000
Connection ~ 5600 4000
Wire Wire Line
	5550 6550 5300 6550
Connection ~ 5550 6450
Wire Wire Line
	3500 6550 3400 6550
Wire Wire Line
	3400 6450 3400 6700
Wire Wire Line
	3400 6700 5550 6700
Connection ~ 5550 6550
Wire Wire Line
	3500 6450 3400 6450
Connection ~ 3400 6550
Wire Wire Line
	7800 1000 7950 1000
Wire Wire Line
	7950 900  7700 900 
Wire Wire Line
	7700 1000 3050 1000
Wire Wire Line
	5400 2400 5650 2400
Wire Wire Line
	5650 2400 5650 1000
Connection ~ 5650 1000
Wire Wire Line
	10050 3750 9850 3750
Connection ~ 9850 3750
Wire Wire Line
	10050 4450 8650 4450
Connection ~ 8400 5650
Wire Wire Line
	6350 5750 6150 5750
Wire Wire Line
	6150 5750 6150 7050
$Comp
L R R2
U 1 1 5133782B
P 10400 6850
F 0 "R2" V 10480 6850 40  0000 C CNN
F 1 "R" V 10407 6851 40  0000 C CNN
F 2 "~" V 10330 6850 30  0000 C CNN
F 3 "~" H 10400 6850 30  0000 C CNN
	1    10400 6850
	0    -1   -1   0   
$EndComp
$Comp
L R R1
U 1 1 513379D2
P 8650 5150
F 0 "R1" V 8730 5150 40  0000 C CNN
F 1 "R" V 8657 5151 40  0000 C CNN
F 2 "~" V 8580 5150 30  0000 C CNN
F 3 "~" H 8650 5150 30  0000 C CNN
	1    8650 5150
	1    0    0    -1  
$EndComp
Wire Wire Line
	8400 4000 8400 6850
Wire Wire Line
	8400 5850 10750 5850
Connection ~ 8400 5850
Wire Wire Line
	8650 4450 8650 4900
Wire Wire Line
	8400 6850 8800 6850
Wire Wire Line
	8400 6400 8800 6400
Connection ~ 8400 6400
Wire Wire Line
	10050 4350 8800 4350
Wire Wire Line
	8800 4350 8800 4900
$Comp
L R R3
U 1 1 5133AC96
P 8800 5150
F 0 "R3" V 8880 5150 40  0000 C CNN
F 1 "R" V 8807 5151 40  0000 C CNN
F 2 "~" V 8730 5150 30  0000 C CNN
F 3 "~" H 8800 5150 30  0000 C CNN
	1    8800 5150
	1    0    0    -1  
$EndComp
Wire Wire Line
	8800 5400 8800 6100
$Comp
L R R4
U 1 1 5133AD87
P 10350 6400
F 0 "R4" V 10430 6400 40  0000 C CNN
F 1 "R" V 10357 6401 40  0000 C CNN
F 2 "~" V 10280 6400 30  0000 C CNN
F 3 "~" H 10350 6400 30  0000 C CNN
	1    10350 6400
	0    -1   -1   0   
$EndComp
Wire Wire Line
	10050 6850 10150 6850
Wire Wire Line
	10050 6400 10100 6400
Wire Wire Line
	10600 6400 10750 6400
Wire Wire Line
	10850 6950 10850 6100
Wire Wire Line
	10850 6100 10050 6100
Wire Wire Line
	3300 6950 10850 6950
Wire Wire Line
	10050 6550 10850 6550
Connection ~ 10850 6550
Wire Wire Line
	10050 6850 10050 7050
Wire Wire Line
	10050 7050 6150 7050
Wire Wire Line
	6350 5650 6100 5650
Wire Wire Line
	6100 5650 6100 7100
Wire Wire Line
	6100 7100 11000 7100
Wire Wire Line
	11000 7100 11000 6250
Wire Wire Line
	11000 6250 10050 6250
Wire Wire Line
	10050 6250 10050 6400
$Comp
L OPTO-TRANSISTOR-2CH U5
U 1 1 5133D42C
P 9450 6300
F 0 "U5" H 9450 6600 60  0000 C CNN
F 1 "OPTO-TRANSISTOR-2CH" H 9500 5650 60  0000 C CNN
F 2 "~" H 9450 6300 60  0000 C CNN
F 3 "~" H 9450 6300 60  0000 C CNN
	1    9450 6300
	1    0    0    -1  
$EndComp
Wire Wire Line
	8650 5400 8650 6550
Wire Wire Line
	8650 6550 8800 6550
Wire Wire Line
	10750 5850 10750 6850
Wire Wire Line
	10750 6850 10650 6850
Connection ~ 10750 6400
Wire Wire Line
	3850 2600 3850 2200
Wire Wire Line
	3850 2200 8500 2200
$EndSCHEMATC
